Lorelogram: describing correlation structure in binary data • lorelogram
…
#> # A tibble: 30 x 4
#>      Lag  LORs U_95_CI L_95_CI
#>    <dbl> <dbl>   <dbl>   <dbl>
#>  1     1 2.99     3.41   2.57 
#>  2     2 1.73     2.41   1.05 
#>  3     3 2.30     2.84   1.76 
#>  4     4 2.14     2.71   1.57 
#>  5     5 1.85     2.50   1.21 
#>  6     6 1.95     2.57   1.34 
#>  7     7 1.12     2.01   0.221
#>  8     8 0.883    1.88  -0.113
#>  9     9 2.05     2.64   1.45 
#> 10    10 1.73     2.41   1.06 
#> # ... with 20 more rows
…
